<?xml version="1.0" encoding="UTF-8" standalone="no"?>
<svg
   xmlns:dc="http://purl.org/dc/elements/1.1/"
   xmlns:cc="http://creativecommons.org/ns#"
   xmlns:rdf="http://www.w3.org/1999/02/22-rdf-syntax-ns#"
   xmlns:svg="http://www.w3.org/2000/svg"
   xmlns="http://www.w3.org/2000/svg"
   version="1.1"
   id="Layer_1"
   x="0px"
   y="0px"
   viewBox="0 0 26.71094 40"
   xml:space="preserve"
   width="26.71094"
   height="40"><metadata
   id="metadata12"><rdf:RDF><cc:Work
       rdf:about=""><dc:format>image/svg+xml</dc:format><dc:type
         rdf:resource="http://purl.org/dc/dcmitype/StillImage" /><dc:title></dc:title></cc:Work></rdf:RDF></metadata><defs
   id="defs10" />
<style
   type="text/css"
   id="style2">
	.st0{fill:#E74C3C;}
	.st1{fill:#C0392B;}
</style>
<g
   id="XMLID_1_"
   transform="matrix(0.078125,0,0,0.078125,-6.648437,0)">
	<path
   id="XMLID_5_"
   class="st0"
   d="M 256,0 C 161.5,0 85.1,76.4 85.1,170.9 c 0,29.9 7.9,58.3 22.1,83.5 2.4,3.9 4.7,7.9 7.1,11.8 L 256,512 397,266.2 c 2.4,-3.2 3.9,-6.3 6.3,-10.2 l 1.6,-2.4 C 419.1,229.2 427,200.8 427,170.1 426.9,76.4 350.5,0 256,0 Z m 0,85.1 c 47.3,0 85.1,38.6 85.1,85.1 0,47.3 -37.8,85.9 -85.1,85.9 -47.3,0 -85.1,-38.6 -85.1,-85.1 0,-47.3 37.8,-85.9 85.1,-85.9 z"
   style="fill:#fbc033;fill-opacity:1" />
	<path
   id="XMLID_8_"
   class="st1"
   d="m 256,63.8 c -59.1,0 -106.3,48 -106.3,106.3 0,59.1 48,106.3 106.3,106.3 59.1,0 106.3,-48 106.3,-106.3 C 362.3,111.8 315.1,63.8 256,63.8 Z m 0,42.5 c 35.4,0 63.8,28.4 63.8,63.8 0,35.4 -28.4,63.8 -63.8,63.8 -35.4,0 -63.8,-28.4 -63.8,-63.8 0,-35.4 28.4,-63.8 63.8,-63.8 z"
   style="fill:#c58c04;fill-opacity:1" />
</g>
</svg>